<?xml version="1.0" encoding="UTF-8" standalone="no"?>
<svg width="38px" height="38px" viewBox="0 0 38 38" version="1.1" xmlns="http://www.w3.org/2000/svg" xmlns:xlink="http://www.w3.org/1999/xlink">
    <!-- Generator: Sketch 39.1 (31720) - http://www.bohemiancoding.com/sketch -->
    <title>Combined Shape Copy</title>
    <desc>Created with Sketch.</desc>
    <defs></defs>
    <g id="Page-1" stroke="none" stroke-width="1" fill="none" fill-rule="evenodd">
        <path d="M18.6666667,14.5805826 L5.41034063,1.32425658 C4.18121051,0.0951264577 2.20938555,0.101942059 0.988997137,1.32233047 C-0.22890803,2.54023564 -0.230528925,4.52222179 0.990923248,5.74367396 L14.2472493,19 L0.990923248,32.256326 C-0.238206876,33.4854562 -0.231391275,35.4572811 0.988997137,36.6776695 C2.2069023,37.8955747 4.18888846,37.8971956 5.41034063,36.6757434 L18.6666667,23.4194174 L31.9229927,36.6757434 C33.1521228,37.9048735 35.1239478,37.8980579 36.3443362,36.6776695 C37.5622414,35.4597644 37.5638623,33.4777782 36.3424101,32.256326 L23.086084,19 L36.3424101,5.74367396 C37.5715402,4.51454384 37.5647246,2.54271888 36.3443362,1.32233047 C35.126431,0.104425304 33.1444449,0.102804408 31.9229927,1.32425658 L18.6666667,14.5805826 Z" id="Combined-Shape-Copy" fill="#FFFFFF"></path>
    </g>
</svg>